<?xml version="1.0" encoding="UTF-8"?>
<!DOCTYPE svg PUBLIC "-//W3C//DTD SVG 1.1//EN" "http://www.w3.org/Graphics/SVG/1.1/DTD/svg11.dtd">
<!-- Creator: CorelDRAW 2018 (64 Bit) -->
<svg xmlns="http://www.w3.org/2000/svg" xml:space="preserve" width="7px" height="14px" version="1.1" style="shape-rendering:geometricPrecision; text-rendering:geometricPrecision; image-rendering:optimizeQuality; fill-rule:evenodd; clip-rule:evenodd"
viewBox="0 0 7.192 15.412"
 xmlns:xlink="http://www.w3.org/1999/xlink">
 <defs>
  <style type="text/css">
   <![CDATA[
    .fil0 {fill:#3B5998}
   ]]>
  </style>
 </defs>
 <g id="Camada_x0020_1">
  <metadata id="CorelCorpID_0Corel-Layer"/>
  <path class="fil0" d="M4.782 15.412l0 0 -3.189 0 0 -7.706 -1.593 0 0 -2.657 1.593 0 0 -1.594c0,-2.167 0.9,-3.455 3.455,-3.455l2.128 0 0 2.657 -1.33 0c-0.994,0 -1.06,0.37 -1.06,1.063l-0.004 1.329 2.41 0 -0.283 2.657 -2.127 0 0 7.706z"/>
 </g>
</svg>
