<?xml version="1.0" encoding="UTF-8"?>
<!DOCTYPE svg PUBLIC "-//W3C//DTD SVG 1.1//EN" "http://www.w3.org/Graphics/SVG/1.1/DTD/svg11.dtd">
<!-- Creator: CorelDRAW 2018 (64 Bit) -->
<svg xmlns="http://www.w3.org/2000/svg" xml:space="preserve" width="14px" height="14px" version="1.1" style="shape-rendering:geometricPrecision; text-rendering:geometricPrecision; image-rendering:optimizeQuality; fill-rule:evenodd; clip-rule:evenodd"
viewBox="0 0 7.656 7.656"
 xmlns:xlink="http://www.w3.org/1999/xlink">
 <defs>
  <style type="text/css">
   <![CDATA[
    .fil0 {fill:#A1937F;fill-rule:nonzero}
   ]]>
  </style>
 </defs>
 <g id="Camada_x0020_1">
  <metadata id="CorelCorpID_0Corel-Layer"/>
  <g id="_1169178947904">
   <path class="fil0" d="M5.665 4.399c-0.015,-0.007 -0.573,-0.282 -0.672,-0.317 -0.041,-0.015 -0.084,-0.029 -0.13,-0.029 -0.076,0 -0.139,0.037 -0.188,0.111 -0.056,0.083 -0.225,0.28 -0.277,0.339 -0.007,0.008 -0.016,0.017 -0.021,0.017 -0.005,0 -0.092,-0.035 -0.118,-0.047 -0.599,-0.26 -1.053,-0.885 -1.115,-0.991 -0.009,-0.015 -0.01,-0.022 -0.01,-0.022 0.002,-0.008 0.022,-0.028 0.033,-0.038 0.03,-0.03 0.063,-0.07 0.095,-0.108 0.015,-0.019 0.03,-0.037 0.045,-0.054 0.046,-0.054 0.067,-0.096 0.091,-0.144l0.012 -0.025c0.059,-0.116 0.009,-0.213 -0.007,-0.245 -0.013,-0.026 -0.249,-0.595 -0.274,-0.655 -0.06,-0.144 -0.14,-0.211 -0.251,-0.211 -0.01,0 0,0 -0.043,0.002 -0.052,0.002 -0.338,0.039 -0.464,0.119 -0.134,0.084 -0.36,0.353 -0.36,0.826 0,0.426 0.27,0.828 0.386,0.981 0.003,0.004 0.008,0.012 0.016,0.023 0.444,0.649 0.998,1.13 1.559,1.354 0.541,0.216 0.797,0.241 0.942,0.241 0,0 0,0 0,0 0.062,0 0.11,-0.005 0.154,-0.009l0.027 -0.003c0.187,-0.016 0.597,-0.229 0.69,-0.488 0.074,-0.205 0.093,-0.428 0.044,-0.509 -0.033,-0.055 -0.091,-0.083 -0.164,-0.118z"/>
   <path class="fil0" d="M3.896 6.686c-0.585,0 -1.152,-0.169 -1.639,-0.488 -0.016,-0.011 -0.035,-0.016 -0.054,-0.016 -0.011,0 -0.021,0.001 -0.031,0.004l-0.995 0.316 0.322 -0.947c0.01,-0.031 0.005,-0.065 -0.014,-0.091 -0.371,-0.507 -0.567,-1.106 -0.567,-1.732 0,-1.629 1.336,-2.955 2.978,-2.955 1.642,0 2.978,1.326 2.978,2.955 0,1.629 -1.336,2.954 -2.978,2.954zm0 -6.686c-2.073,0 -3.76,1.674 -3.76,3.732 0,0.666 0.178,1.317 0.515,1.887l-0.646 1.906c-0.003,0.01 -0.005,0.021 -0.005,0.032 0,0.025 0.01,0.05 0.029,0.069 0.019,0.019 0.044,0.03 0.071,0.03l0 0c0.01,0 0.02,-0.002 0.03,-0.005l1.986 -0.631c0.544,0.29 1.158,0.444 1.78,0.444 2.073,0 3.76,-1.674 3.76,-3.732 0,-2.058 -1.687,-3.732 -3.76,-3.732z"/>
  </g>
 </g>
</svg>
